Module 5 Balance Sheet Forecasting | Agricultural Outlook & Forecasting
…
harvest

## # A tsibble: 36 x 2 [1Y]
##     year  harvest
##    <int>    <dbl>
##  1  1986 68907000
##  2  1987 59505000
##  3  1988 58250000
##  4  1989 64783000
##  5  1990 66952000
##  6  1991 68822000
##  7  1992 72077000
##  8  1993 62933000
##  9  1994 72514000
## 10  1995 65210000
## # ℹ 26 more rows
…
  group = "FIELD CROPS",
  commodity = "CORN",
  category = "AREA PLANTED",
  data_item = "CORN - ACRES PLANTED",
  domain = "TOTAL",
  geographic_level = "NATIONAL",
  state = "US TOTAL",
  year = as.character(1986:2021)) %>% 
  filter(reference_period_desc == "YEAR") %>%  
  rename(planted = Value) %>%
  select(c(year, planted)) %>%
  as_tsibble(index = year)
planted

## # A tsibble: 36 x 2 [1Y]
##     year  planted
##    <int>    <dbl>
##  1  1986 76580000
##  2  1987 66200000
##  3  1988 67717000
##  4  1989 72322000
##  5  1990 74166000
##  6  1991 75957000
##  7  1992 79311000
##  8  1993 73239000
##  9  1994 78921000
## 10  1995 71479000
## # ℹ 26 more rows

After combining both data sets, we are able to compute the historical loss ratios. We can also compute the 5-year moving averages of the loss-ratio. This will help with the second portion of the activity.

corn <- left_join(harvest, planted, by = join_by(year)) %>% 
  mutate(loss.ratio = harvest/planted, 
  `5-MA_loss` = slider::slide_dbl(loss.ratio, mean, .before =4, .after = 0,
                    .complete = TRUE)
  )

corn

## # A tsibble: 36 x 5 [1Y]
##     year  harvest  planted loss.ratio `5-MA_loss`
##    <int>    <dbl>    <dbl>      <dbl>       <dbl>
##  1  1986 68907000 76580000      0.900      NA    
##  2  1987 59505000 66200000      0.899      NA    
##  3  1988 58250000 67717000      0.860      NA    
##  4  1989 64783000 72322000      0.896      NA    
##  5  1990 66952000 74166000      0.903       0.891
##  6  1991 68822000 75957000      0.906       0.893
##  7  1992 72077000 79311000      0.909       0.895
##  8  1993 62933000 73239000      0.859       0.895
##  9  1994 72514000 78921000      0.919       0.899
## 10  1995 65210000 71479000      0.912       0.901
## # ℹ 26 more rows
…
