Module 3 Data Manipulation, Visualization, and Basic Forecasting | Agricultural Outlook & Forecasting
…
Now, we can declare the year as our time index.

corn.ts <- as_tsibble(corn.annual2, index = "year")
corn.ts

## # A tsibble: 24 x 2 [1Y]
##     year Value
##    <int> <dbl>
##  1  1996  3.55
##  2  1997  2.6 
##  3  1998  2.2 
##  4  1999  1.89
##  5  2000  1.86
##  6  2001  1.89
##  7  2002  2.13
##  8  2003  2.27
##  9  2004  2.47
## 10  2005  1.96
## # ℹ 14 more rows
…
3.2.2 Pipe Operator

You can imagine how cumbersome our code will get as we start to perform multiple operations on our raw dataset. We will need to save the intermediary dataframes along the way. Our variable names could quickly become long and confusing.

To get around this, we can use the pipe operator, %>%. This allows us to pass arguments (think intermediary dataframes) from left to right and perform various functions/operations at each stage. For simplicity, we will utilize this function extensively throughout this training module.

Revisiting the problem above, we can recreate corn.ts in a single line of code. We will store the results in an aptly named variable, corn.ts.pipe.

corn.ts.pipe <- corn %>% 
  filter(reference_period_desc == "YEAR") %>% 
  select(year, Value) %>% 
  as_tsibble(index = "year")
corn.ts.pipe

## # A tsibble: 24 x 2 [1Y]
##     year Value
##    <int> <dbl>
##  1  1996  3.55
##  2  1997  2.6 
##  3  1998  2.2 
##  4  1999  1.89
##  5  2000  1.86
##  6  2001  1.89
##  7  2002  2.13
##  8  2003  2.27
##  9  2004  2.47
## 10  2005  1.96
## # ℹ 14 more rows
…
The value of 0.971 at lag 1 implies that last month’s corn price explains more than 94.2841% of the current corn price.2 The correlation value slowly goes to zero as we go further back in time. This indicates that we have a series with a trend. We will discuss further later.

To view the correlation statistic at each lag, you can copy and paste the code below.

corn.monthly %>% ACF(Value) 

## # A tsibble: 25 x 2 [1M]
##         lag   acf
##    <cf_lag> <dbl>
##  1       1M 0.989
##  2       2M 0.971
##  3       3M 0.949
##  4       4M 0.927
##  5       5M 0.904
##  6       6M 0.882
##  7       7M 0.861
##  8       8M 0.842
##  9       9M 0.825
## 10      10M 0.807
## # ℹ 15 more rows
…
#Last value
last(corn.monthly$Value)

## [1] 3.71

This is especially true if we believe in the Efficient Market hypothesis and in cases where the market is exceptionally volatile or even mean reverting.

# The forecast horizon (h) = 36 or 3 years
corn.naive <- corn.monthly %>% 
  model(naive = NAIVE(Value)) %>% forecast(h = "3 years")

corn.naive

## # A fable: 36 x 4 [1M]
## # Key:     .model [1]
##    .model     date         Value .mean
##    <chr>     <mth>        <dist> <dbl>
##  1 naive  2020 Jan N(3.7, 0.036)  3.71
##  2 naive  2020 Feb N(3.7, 0.072)  3.71
##  3 naive  2020 Mar  N(3.7, 0.11)  3.71
##  4 naive  2020 Apr  N(3.7, 0.14)  3.71
##  5 naive  2020 May  N(3.7, 0.18)  3.71
##  6 naive  2020 Jun  N(3.7, 0.22)  3.71
##  7 naive  2020 Jul  N(3.7, 0.25)  3.71
##  8 naive  2020 Aug  N(3.7, 0.29)  3.71
##  9 naive  2020 Sep  N(3.7, 0.32)  3.71
## 10 naive  2020 Oct  N(3.7, 0.36)  3.71
## # ℹ 26 more rows
…
3.4.3 Seasonal Naïve Method

If we assume that the series displays seasonality, we could use a seasonal naïve method. The forecast for a given season (say January 2020 and February 2020) is equal to the last value observed for that same season (January 2019 and February 2019, respectively, in this case).

# The forecast horizon (h) = 36 or 3 years
corn.snaive <- corn.monthly %>% 
  model(snaive = SNAIVE(Value)) %>% 
  forecast(h = "3 years")

corn.snaive

## # A fable: 36 x 4 [1M]
## # Key:     .model [1]
##    .model     date        Value .mean
##    <chr>     <mth>       <dist> <dbl>
##  1 snaive 2020 Jan N(3.6, 0.81)  3.56
##  2 snaive 2020 Feb N(3.6, 0.81)  3.6 
##  3 snaive 2020 Mar N(3.6, 0.81)  3.61
##  4 snaive 2020 Apr N(3.5, 0.81)  3.53
##  5 snaive 2020 May N(3.6, 0.81)  3.63
##  6 snaive 2020 Jun   N(4, 0.81)  3.98
##  7 snaive 2020 Jul N(4.2, 0.81)  4.16
##  8 snaive 2020 Aug N(3.9, 0.81)  3.93
##  9 snaive 2020 Sep N(3.8, 0.81)  3.8 
## 10 snaive 2020 Oct N(3.8, 0.81)  3.85
## # ℹ 26 more rows
…
3.4.4 Drift Method

In this case, we assign the forecasts as the last value plus the average change over the sample. This is equivalent to drawing a straight line between the first and last observations and extrapolating out into the future.

This is commonly referred to as the RW (Naïve) model with drift.

# The forecast horizon (h) = 36 or 3 years
corn.drift <- corn.monthly %>% model(
  drift = RW(Value ~ drift ())) %>% 
  forecast(h = 36)

corn.drift

## # A fable: 36 x 4 [1M]
## # Key:     .model [1]
##    .model     date         Value .mean
##    <chr>     <mth>        <dist> <dbl>
##  1 drift  2020 Jan N(3.7, 0.036)  3.71
##  2 drift  2020 Feb N(3.7, 0.073)  3.72
##  3 drift  2020 Mar  N(3.7, 0.11)  3.72
##  4 drift  2020 Apr  N(3.7, 0.15)  3.73
##  5 drift  2020 May  N(3.7, 0.18)  3.73
##  6 drift  2020 Jun  N(3.7, 0.22)  3.73
##  7 drift  2020 Jul  N(3.7, 0.26)  3.74
##  8 drift  2020 Aug   N(3.7, 0.3)  3.74
##  9 drift  2020 Sep  N(3.7, 0.33)  3.75
## 10 drift  2020 Oct  N(3.7, 0.37)  3.75
## # ℹ 26 more rows
…
3.4.5 Visualing all Forecasts

Like much of coding in R, there are several ways to accomplish a given task. We will take the simplest path and first save all 4 models in a single fable.

models.corn <- corn.monthly %>% model(
  mean = MEAN(Value),
  naive = RW(Value),
  snaive = SNAIVE(Value),
  drift = RW(Value ~ drift())
  ) %>% 
  forecast(h = "3 years")

models.corn

## # A fable: 144 x 4 [1M]
## # Key:     .model [4]
##    .model     date       Value .mean
##    <chr>     <mth>      <dist> <dbl>
##  1 mean   2020 Jan N(3.2, 1.8)  3.19
##  2 mean   2020 Feb N(3.2, 1.8)  3.19
##  3 mean   2020 Mar N(3.2, 1.8)  3.19
##  4 mean   2020 Apr N(3.2, 1.8)  3.19
##  5 mean   2020 May N(3.2, 1.8)  3.19
##  6 mean   2020 Jun N(3.2, 1.8)  3.19
##  7 mean   2020 Jul N(3.2, 1.8)  3.19
##  8 mean   2020 Aug N(3.2, 1.8)  3.19
##  9 mean   2020 Sep N(3.2, 1.8)  3.19
## 10 mean   2020 Oct N(3.2, 1.8)  3.19
## # ℹ 134 more rows
…
3.4.6.1 Simple exponential Smoothing

This method is suitable for forecasting data with no clear trend or seasonal pattern. For a moment, let us ignore the trend present in the our corn prices data.

We could estimate the simple exponential smoothing model forecasts as follows

corn.ses <- corn.monthly %>% 
  model(ses = ETS(Value ~ error("A")+ trend("N") + season("N")))

You can view the stored model fit (in-sample) using the augment function

corn.ses %>% augment()

## # A tsibble: 360 x 6 [1M]
## # Key:       .model [1]
##    .model     date Value .fitted    .resid    .innov
##    <chr>     <mth> <dbl>   <dbl>     <dbl>     <dbl>
##  1 ses    1990 Jan  2.31    2.31  0.000556  0.000556
##  2 ses    1990 Feb  2.32    2.31  0.0100    0.0100  
##  3 ses    1990 Mar  2.37    2.32  0.0500    0.0500  
##  4 ses    1990 Apr  2.51    2.37  0.140     0.140   
##  5 ses    1990 May  2.62    2.51  0.110     0.110   
##  6 ses    1990 Jun  2.63    2.62  0.0100    0.0100  
##  7 ses    1990 Jul  2.62    2.63 -0.0100   -0.0100  
##  8 ses    1990 Aug  2.51    2.62 -0.110    -0.110   
##  9 ses    1990 Sep  2.32    2.51 -0.190    -0.190   
## 10 ses    1990 Oct  2.19    2.32 -0.130    -0.130   
## # ℹ 350 more rows

Producing our forecasts as before:

corn.ses %>% forecast(h = "3 years")

## # A fable: 36 x 4 [1M]
## # Key:     .model [1]
##    .model     date         Value .mean
##    <chr>     <mth>        <dist> <dbl>
##  1 ses    2020 Jan N(3.7, 0.036)  3.71
##  2 ses    2020 Feb N(3.7, 0.072)  3.71
##  3 ses    2020 Mar  N(3.7, 0.11)  3.71
##  4 ses    2020 Apr  N(3.7, 0.14)  3.71
##  5 ses    2020 May  N(3.7, 0.18)  3.71
##  6 ses    2020 Jun  N(3.7, 0.22)  3.71
##  7 ses    2020 Jul  N(3.7, 0.25)  3.71
##  8 ses    2020 Aug  N(3.7, 0.29)  3.71
##  9 ses    2020 Sep  N(3.7, 0.33)  3.71
## 10 ses    2020 Oct  N(3.7, 0.36)  3.71
## # ℹ 26 more rows
…
