Module 6 Forecasting Prices Using Stocks-to-Use Ratios | Agricultural Outlook & Forecasting
…
Once we formatted the data, we can create our desired new variables.

subdata <- subdata %>% 
  mutate(weak = ifelse(Year %in% weak, 1,0),
         mod2 = ifelse(Year %in% mod2, 1,0),
         mod1 = ifelse(Year %in% mod1, 1,0),
         strong = ifelse(Year %in% strong, 1,0))
subdata

## # A tsibble: 25 x 8 [1Y]
##     Year     su price  ratio  weak  mod2  mod1 strong
##    <dbl>  <dbl> <dbl>  <dbl> <dbl> <dbl> <dbl>  <dbl>
##  1  1990 0.196   2.28 0.0511     0     0     0      0
##  2  1991 0.139   2.37 0.0720     0     0     0      0
##  3  1992 0.249   2.07 0.0402     0     0     0      0
##  4  1993 0.112   2.5  0.0896     0     0     0      0
##  5  1994 0.166   2.26 0.0603     0     0     0      0
##  6  1995 0.0500  3.24 0.200      0     0     0      0
##  7  1996 0.100   2.71 0.0995     0     0     0      0
##  8  1997 0.149   2.43 0.0672     0     0     0      0
##  9  1998 0.192   1.94 0.0520     0     0     0      0
## 10  1999 0.181   1.82 0.0554     0     0     0      0
## # ℹ 15 more rows
…
#Drop 2006
subdata <- su.data %>% filter(Year %in% 
                                c(1990:2005,2007:2020))

subdata <- subdata %>% 
  mutate(weak.d = ifelse(Year %in% weak, 1,0),
         mod2.d = ifelse(Year %in% mod2, 1,0),
         mod1.d = ifelse(Year %in% mod1, 1,0),
         strong.d = ifelse(Year %in% strong, 1,0))

subdata

## # A tsibble: 30 x 8 [1Y]
##     Year     su price  ratio weak.d mod2.d mod1.d strong.d
##    <dbl>  <dbl> <dbl>  <dbl>  <dbl>  <dbl>  <dbl>    <dbl>
##  1  1990 0.196   2.28 0.0511      0      0      0        0
##  2  1991 0.139   2.37 0.0720      0      0      0        0
##  3  1992 0.249   2.07 0.0402      0      0      0        0
##  4  1993 0.112   2.5  0.0896      0      0      0        0
##  5  1994 0.166   2.26 0.0603      0      0      0        0
##  6  1995 0.0500  3.24 0.200       0      0      0        0
##  7  1996 0.100   2.71 0.0995      0      0      0        0
##  8  1997 0.149   2.43 0.0672      0      0      0        0
##  9  1998 0.192   1.94 0.0520      0      0      0        0
## 10  1999 0.181   1.82 0.0554      0      0      0        0
## # ℹ 20 more rows
…
