Module 4 Time Series Patterns | Agricultural Outlook & Forecasting
…
# Step 3 & 4: Keep only the relevant columns and declare as tsibble object

pork.ts <- pork %>% 
# Convert the year + month index to a yearmonth object
  mutate(date = yearmonth(paste(year,begin_code)),
# divide Value by 1 million and save over original column
         Value = Value/1000000) %>% 
  select(date, Value) %>% 
as_tsibble(index = date)

pork.ts

## # A tsibble: 456 x 2 [1M]
##        date Value
##       <mth> <dbl>
##  1 1983 Jan  224.
##  2 1983 Feb  216.
##  3 1983 Mar  235.
##  4 1983 Apr  273.
##  5 1983 May  293.
##  6 1983 Jun  280.
##  7 1983 Jul  253.
##  8 1983 Aug  214.
##  9 1983 Sep  210.
## 10 1983 Oct  240.
## # ℹ 446 more rows
…
What would you conclude regarding potential seasonality and/or trend.

Annualized data

We might be interested in the annual mean cold storage instead. Again, there are several ways to do this but we will stick with the tidyverse conventions.

pork.annual <- pork.ts %>% 
# Group observations on year index
  index_by(year = year(date)) %>% 
# Compute the annual means
  summarise(Value = mean(Value))

pork.annual

## # A tsibble: 38 x 2 [1Y]
##     year Value
##    <dbl> <dbl>
##  1  1983  253.
##  2  1984  323.
##  3  1985  312.
##  4  1986  228.
##  5  1987  215.
##  6  1988  337.
##  7  1989  343.
##  8  1990  267.
##  9  1991  297.
## 10  1992  325.
## # ℹ 28 more rows
…
Sometimes it could be helpful to see where the current series is relative to its historical average. Moving averages can be helpful in achieving this.

More formally, moving averages allow us to extract the long-term trend (and cycle) in the data.

Returning to our annual pork cold storage series, pork.annual, we can generate a centered 3-year moving averages.

sma3 <- pork.annual %>% mutate(
    `3-MA` = slider::slide_dbl(Value, mean,
                .before = 1, .after = 1, 
                .complete = TRUE)
  )
sma3

## # A tsibble: 38 x 3 [1Y]
##     year Value `3-MA`
##    <dbl> <dbl>  <dbl>
##  1  1983  253.    NA 
##  2  1984  323.   296.
##  3  1985  312.   288.
##  4  1986  228.   252.
##  5  1987  215.   260.
##  6  1988  337.   298.
##  7  1989  343.   316.
##  8  1990  267.   302.
##  9  1991  297.   296.
## 10  1992  325.   319.
## # ℹ 28 more rows
…
smas <- pork.annual %>% mutate(
    `3-MA` = slider::slide_dbl(Value, mean,
                .before = 1, .after = 1, 
                .complete = TRUE),
    `5-MA` = slider::slide_dbl(Value, mean,
                .before = 2, .after = 2, 
                .complete = TRUE),
    `7-MA` = slider::slide_dbl(Value, mean,
                .before = 3, .after = 3, 
                .complete = TRUE)
  )
smas

## # A tsibble: 38 x 5 [1Y]
##     year Value `3-MA` `5-MA` `7-MA`
##    <dbl> <dbl>  <dbl>  <dbl>  <dbl>
##  1  1983  253.    NA     NA     NA 
##  2  1984  323.   296.    NA     NA 
##  3  1985  312.   288.   266.    NA 
##  4  1986  228.   252.   283.   287.
##  5  1987  215.   260.   287.   289.
##  6  1988  337.   298.   278.   286.
##  7  1989  343.   316.   292.   287.
##  8  1990  267.   302.   314.   303.
##  9  1991  297.   296.   313.   327.
## 10  1992  325.   319.   321.   333.
## # ℹ 28 more rows
…
4.7 Visualizing the model fits

We can use the augment command to see all the elements stored in our model fits earlier.

model1 %>% augment()

## # A tsibble: 456 x 6 [1M]
## # Key:       .model [1]
##    .model                 date Value .fitted .resid .innov
##    <chr>                 <mth> <dbl>   <dbl>  <dbl>  <dbl>
##  1 TSLM(Value ~ tren… 1983 Jan  224.    255. -31.3  -31.3 
##  2 TSLM(Value ~ tren… 1983 Feb  216.    256. -40.4  -40.4 
##  3 TSLM(Value ~ tren… 1983 Mar  235.    257. -22.3  -22.3 
##  4 TSLM(Value ~ tren… 1983 Apr  273.    258.  14.8   14.8 
##  5 TSLM(Value ~ tren… 1983 May  293.    259.  34.3   34.3 
##  6 TSLM(Value ~ tren… 1983 Jun  280.    260.  20.9   20.9 
##  7 TSLM(Value ~ tren… 1983 Jul  253.    260.  -7.33  -7.33
##  8 TSLM(Value ~ tren… 1983 Aug  214.    261. -47.1  -47.1 
##  9 TSLM(Value ~ tren… 1983 Sep  210.    262. -52.0  -52.0 
## 10 TSLM(Value ~ tren… 1983 Oct  240.    263. -22.7  -22.7 
## # ℹ 446 more rows
…
Let us merge all the codes above to extract the fitted values of our three models and produce a single plot that allows us to visualize the data and the fits of all the models.

full.mod <- pork.ts %>% 
  model(trend = TSLM(Value ~ trend()),
        season = TSLM(Value ~ season()),
        trend_season = TSLM(Value ~ trend() + season())) 

full.mod %>% augment()

## # A tsibble: 1,368 x 6 [1M]
## # Key:       .model [3]
##    .model     date Value .fitted .resid .innov
##    <chr>     <mth> <dbl>   <dbl>  <dbl>  <dbl>
##  1 trend  1983 Jan  224.    255. -31.3  -31.3 
##  2 trend  1983 Feb  216.    256. -40.4  -40.4 
##  3 trend  1983 Mar  235.    257. -22.3  -22.3 
##  4 trend  1983 Apr  273.    258.  14.8   14.8 
##  5 trend  1983 May  293.    259.  34.3   34.3 
##  6 trend  1983 Jun  280.    260.  20.9   20.9 
##  7 trend  1983 Jul  253.    260.  -7.33  -7.33
##  8 trend  1983 Aug  214.    261. -47.1  -47.1 
##  9 trend  1983 Sep  210.    262. -52.0  -52.0 
## 10 trend  1983 Oct  240.    263. -22.7  -22.7 
## # ℹ 1,358 more rows
…
We can use the forecast function to create out-of-sample forecasts of our 3 models.

It is worthwhile to note that the trend value and dummies are always
known into the future so we will not have a problem with unknown data at
the time of forecasting.

Our forecast will become a lot more complicated when we have other
economic variables on the right hand side. We will also need forecasts
of their future values, before we are able to forecast our true variable
of interest.

pork.forecast <- full.mod %>% forecast(h = "2 year")
pork.forecast 

## # A fable: 72 x 4 [1M]
## # Key:     .model [3]
##    .model     date        Value .mean
##    <chr>     <mth>       <dist> <dbl>
##  1 trend  2021 Jan N(625, 3959)  625.
##  2 trend  2021 Feb N(626, 3960)  626.
##  3 trend  2021 Mar N(627, 3960)  627.
##  4 trend  2021 Apr N(628, 3960)  628.
##  5 trend  2021 May N(628, 3960)  628.
##  6 trend  2021 Jun N(629, 3961)  629.
##  7 trend  2021 Jul N(630, 3961)  630.
##  8 trend  2021 Aug N(631, 3961)  631.
##  9 trend  2021 Sep N(632, 3961)  632.
## 10 trend  2021 Oct N(632, 3961)  632.
## # ℹ 62 more rows
…
For example:

The price in the next period might be a function of the price observed today.

\[p_t = \alpha + \beta p_{t-1} + \varepsilon_t\]
where \(p_t\) could refer to prices (value) of our frozen pork stock.

Since this model includes only 1 lag of the \(y\) variable, this is referred to as an AR(1) model.

We will use the lag function to quickly create our lagged variables.

pork.l1 <- pork.ts %>% mutate(l.pork = lag(Value,1))
pork.l1

## # A tsibble: 456 x 3 [1M]
##        date Value l.pork
##       <mth> <dbl>  <dbl>
##  1 1983 Jan  224.    NA 
##  2 1983 Feb  216.   224.
##  3 1983 Mar  235.   216.
##  4 1983 Apr  273.   235.
##  5 1983 May  293.   273.
##  6 1983 Jun  280.   293.
##  7 1983 Jul  253.   280.
##  8 1983 Aug  214.   253.
##  9 1983 Sep  210.   214.
## 10 1983 Oct  240.   210.
## # ℹ 446 more rows
…
